<svg xmlns="http://www.w3.org/2000/svg" fill="none" viewBox="0 0 24 24" stroke="currentColor">
  <path stroke-linecap="round" stroke-linejoin="round" stroke-width="2" d="M12 8a3 3 0 100-6 3 3 0 000 6zM12 22V8M5 12H2a10 10 0 0020 0h-3"/>
</svg>
