<svg xmlns="http://www.w3.org/2000/svg" fill="none" viewBox="0 0 24 24" stroke="currentColor">
  <path stroke-linecap="round" stroke-linejoin="round" stroke-width="2" d="M1 4v6h6M23 20v-6h-6"/>
  <path stroke-linecap="round" stroke-linejoin="round" stroke-width="2" d="M20.49 9A9 9 0 005.64 5.64L1 10m22 4l-4.64 4.36A9 9 0 013.51 15"/>
</svg>
