<svg xmlns="http://www.w3.org/2000/svg" fill="none" viewBox="0 0 24 24" stroke="currentColor">
  <path stroke-linecap="round" stroke-linejoin="round" stroke-width="2" d="M20 7H4a2 2 0 00-2 2v10a2 2 0 002 2h16a2 2 0 002-2V9a2 2 0 00-2-2z"/>
  <path stroke-linecap="round" stroke-linejoin="round" stroke-width="2" d="M16 21V5a2 2 0 00-2-2h-4a2 2 0 00-2 2v16"/>
</svg>
