<svg xmlns="http://www.w3.org/2000/svg" fill="none" viewBox="0 0 24 24" stroke="currentColor">
  <g stroke-linecap="round" stroke-linejoin="round" stroke-width="2" clip-path="url(#clip0)">
    <path d="M19 16.9A5 5 0 0018 7h-1.26a8 8 0 10-11.62 9"/>
    <path d="M13 11l-4 6h6l-4 6"/>
  </g>
  <defs>
    <clipPath id="clip0">
      <path fill="#fff" d="M0 0h24v24H0z"/>
    </clipPath>
  </defs>
</svg>
