<svg xmlns="http://www.w3.org/2000/svg" fill="none" viewBox="0 0 24 24" stroke="currentColor">
  <g clip-path="url(#clip0)">
    <path stroke-linecap="round" stroke-linejoin="round" stroke-width="2" d="M18 10h-1.26A8 8 0 109 20h9a5 5 0 100-10z"/>
  </g>
  <defs>
    <clipPath id="clip0">
      <path fill="#fff" d="M0 0h24v24H0z"/>
    </clipPath>
  </defs>
</svg>
