<svg xmlns="http://www.w3.org/2000/svg" fill="none" viewBox="0 0 24 24" stroke="currentColor">
  <path stroke-linecap="round" stroke-linejoin="round" stroke-width="2" d="M18 3a3 3 0 00-3 3v12a3 3 0 103-3H6a3 3 0 103 3V6a3 3 0 10-3 3h12a3 3 0 000-6z"/>
</svg>
