<svg xmlns="http://www.w3.org/2000/svg" fill="none" viewBox="0 0 24 24" stroke="currentColor">
  <path stroke-linejoin="round" stroke-width="2" d="M12 8c-6.3 0-9 5.746-9 11h18c0-5.254-2.7-11-9-11z"/>
  <path stroke-linecap="round" stroke-linejoin="round" stroke-width="2" d="M1 19h22"/>
  <path stroke-linecap="round" stroke-width="2" d="M11 5h1.818"/>
</svg>
