<svg xmlns="http://www.w3.org/2000/svg" fill="none" viewBox="0 0 24 24" stroke="currentColor">
  <path stroke-linecap="round" stroke-linejoin="round" stroke-width="2" d="M12 2.69l5.66 5.66a8 8 0 11-11.31 0L12 2.69z"/>
</svg>
