<svg xmlns="http://www.w3.org/2000/svg" fill="none" viewBox="0 0 24 24" stroke="currentColor">
  <path stroke-linecap="round" stroke-linejoin="round" stroke-width="2" d="M12 22c5.523 0 10-4.477 10-10S17.523 2 12 2 2 6.477 2 12s4.477 10 10 10z"/>
  <path stroke-linecap="round" stroke-linejoin="round" stroke-width="2" d="M8 14s1.5 2 4 2 4-2 4-2M9 9h.01M15 9h.01"/>
</svg>
