<svg xmlns="http://www.w3.org/2000/svg" fill="none" viewBox="0 0 24 24" stroke="currentColor">
  <path stroke-linecap="round" stroke-linejoin="round" stroke-width="2" d="M1 12s4-8 11-8 11 8 11 8-4 8-11 8-11-8-11-8z"/>
  <path stroke-linecap="round" stroke-linejoin="round" stroke-width="2" d="M12 15a3 3 0 100-6 3 3 0 000 6z"/>
</svg>
