<svg xmlns="http://www.w3.org/2000/svg" fill="none" viewBox="0 0 24 24" stroke="currentColor">
  <path stroke-linecap="round" stroke-linejoin="round" stroke-width="2" d="M13 2H6a2 2 0 00-2 2v16a2 2 0 002 2h12a2 2 0 002-2V9l-7-7z"/>
  <path stroke-linecap="round" stroke-linejoin="round" stroke-width="2" d="M13 2v7h7"/>
</svg>
