<svg xmlns="http://www.w3.org/2000/svg" fill="none" viewBox="0 0 24 24" stroke="currentColor">
  <path stroke-linecap="round" stroke-linejoin="round" stroke-width="2" d="M18 21a3 3 0 100-6 3 3 0 000 6zM6 9a3 3 0 100-6 3 3 0 000 6z"/>
  <path stroke-linecap="round" stroke-linejoin="round" stroke-width="2" d="M6 21V9a9 9 0 009 9"/>
</svg>
