<svg xmlns="http://www.w3.org/2000/svg" fill="none" viewBox="0 0 24 24" stroke="currentColor">
  <path stroke-linecap="round" stroke-linejoin="round" stroke-width="2" d="M19 3H5a2 2 0 00-2 2v14a2 2 0 002 2h14a2 2 0 002-2V5a2 2 0 00-2-2z"/>
  <path stroke-linecap="round" stroke-linejoin="round" stroke-width="2" d="M8.5 10a1.5 1.5 0 100-3 1.5 1.5 0 000 3zM21 15l-5-5L5 21"/>
</svg>
