<svg xmlns="http://www.w3.org/2000/svg" fill="none" viewBox="0 0 24 24" stroke="currentColor">
  <path stroke-linecap="round" stroke-linejoin="round" stroke-width="2" d="M10 3H3v7h7V3zM21 3h-7v7h7V3zM21 14h-7v7h7v-7zM10 14H3v7h7v-7z"/>
</svg>
