<svg xmlns="http://www.w3.org/2000/svg" fill="none" viewBox="0 0 24 24" stroke="currentColor">
  <path stroke-linecap="round" stroke-linejoin="round" stroke-width="2" d="M14 15l-5 5-5-5"/>
  <path stroke-linecap="round" stroke-linejoin="round" stroke-width="2" d="M20 4h-7a4 4 0 00-4 4v12"/>
</svg>
