<svg xmlns="http://www.w3.org/2000/svg" fill="none" viewBox="0 0 24 24" stroke="currentColor">
  <path stroke-linecap="round" stroke-linejoin="round" stroke-width="2" d="M21 10c0 7-9 13-9 13s-9-6-9-13a9 9 0 1118 0z"/>
  <path stroke-linecap="round" stroke-linejoin="round" stroke-width="2" d="M12 13a3 3 0 100-6 3 3 0 000 6z"/>
</svg>
