<svg xmlns="http://www.w3.org/2000/svg" fill="none" viewBox="0 0 24 24" stroke="currentColor">
  <path stroke-linecap="round" stroke-linejoin="round" stroke-width="2" d="M12 16a4 4 0 100-8 4 4 0 000 8z"/>
  <path stroke-linecap="round" stroke-linejoin="round" stroke-width="2" d="M16 8v5a3 3 0 006 0v-1a10 10 0 10-3.92 7.94"/>
</svg>
