<svg xmlns="http://www.w3.org/2000/svg" fill="none" viewBox="0 0 24 24" stroke="currentColor">
  <path stroke-linecap="round" stroke-linejoin="round" stroke-width="2" d="M15 3h6v6M9 21H3v-6M21 3l-7 7M3 21l7-7"/>
</svg>
