<svg xmlns="http://www.w3.org/2000/svg" fill="none" viewBox="0 0 24 24" stroke="currentColor">
  <path stroke-linecap="round" stroke-linejoin="round" stroke-width="2" d="M4 14h6v6M20 10h-6V4M14 10l7-7M3 21l7-7"/>
</svg>
