<svg xmlns="http://www.w3.org/2000/svg" fill="none" viewBox="0 0 24 24" stroke="currentColor">
  <path stroke-linecap="round" stroke-linejoin="round" stroke-width="2" d="M20 3H4a2 2 0 00-2 2v10a2 2 0 002 2h16a2 2 0 002-2V5a2 2 0 00-2-2zM8 21h8M12 17v4"/>
</svg>
