<svg xmlns="http://www.w3.org/2000/svg" fill="none" viewBox="0 0 24 24" stroke="currentColor">
  <path stroke-linecap="round" stroke-linejoin="round" stroke-width="2" d="M3 3l7.07 16.97 2.51-7.39 7.39-2.51L3 3zM13 13l6 6"/>
</svg>
