<svg xmlns="http://www.w3.org/2000/svg" fill="none" viewBox="0 0 24 24" stroke="currentColor">
  <path stroke-linecap="round" stroke-linejoin="round" stroke-width="2" d="M10 15l5 5 5-5"/>
  <path stroke-linecap="round" stroke-linejoin="round" stroke-width="2" d="M4 4h7a4 4 0 014 4v12"/>
</svg>
