<svg xmlns="http://www.w3.org/2000/svg" fill="none" viewBox="0 0 24 24" stroke="currentColor">
  <path stroke-linecap="round" stroke-linejoin="round" stroke-width="2" d="M4 11a9 9 0 019 9M4 4a16 16 0 0116 16M5 20a1 1 0 100-2 1 1 0 000 2z"/>
</svg>
