<svg xmlns="http://www.w3.org/2000/svg" fill="none" viewBox="0 0 24 24" stroke="currentColor">
  <path stroke-linecap="round" stroke-linejoin="round" stroke-width="2" d="M6 9a3 3 0 100-6 3 3 0 000 6zM6 21a3 3 0 100-6 3 3 0 000 6zM20 4L8.12 15.88M14.47 14.48L20 20M8.12 8.12L12 12"/>
</svg>
