<svg xmlns="http://www.w3.org/2000/svg" fill="none" viewBox="0 0 24 24" stroke="currentColor">
  <path stroke-linecap="round" stroke-linejoin="round" stroke-width="2" d="M20.59 13.41l-7.17 7.17a1.998 1.998 0 01-2.83 0L2 12V2h10l8.59 8.59a2 2 0 010 2.82v0zM7 7h.01"/>
</svg>
