<svg xmlns="http://www.w3.org/2000/svg" fill="none" viewBox="0 0 24 24" stroke="currentColor">
  <path fill="#25282B" fill-rule="evenodd" d="M16 2H5.72a2 2 0 00-2 1.7l-1.38 9a2 2 0 002 2.3H10v4a3 3 0 003 3l3-6.75V2zm2 11h1.67A2.31 2.31 0 0022 11V4a2.31 2.31 0 00-2.33-2H18v11z" clip-rule="evenodd"/>
</svg>
