<svg xmlns="http://www.w3.org/2000/svg" fill="none" viewBox="0 0 24 24" stroke="currentColor">
  <path stroke-linecap="round" stroke-linejoin="round" stroke-width="2" d="M23 18l-9.5-9.5-5 5L1 6"/>
  <path stroke-linecap="round" stroke-linejoin="round" stroke-width="2" d="M17 18h6v-6"/>
</svg>
