<svg xmlns="http://www.w3.org/2000/svg" fill="none" viewBox="0 0 24 24" stroke="currentColor">
  <path stroke-linecap="round" stroke-linejoin="round" stroke-width="2" d="M15 14l5-5-5-5"/>
  <path stroke-linecap="round" stroke-linejoin="round" stroke-width="2" d="M4 20v-7a4 4 0 014-4h12"/>
</svg>
