<svg xmlns="http://www.w3.org/2000/svg" fill="none" viewBox="0 0 24 24" stroke="currentColor">
  <path stroke-linecap="round" stroke-linejoin="round" stroke-width="2" d="M16 21v-2a4 4 0 00-4-4H5a4 4 0 00-4 4v2M8.5 11a4 4 0 100-8 4 4 0 000 8zM18 8l5 5M23 8l-5 5"/>
</svg>
