<svg xmlns="http://www.w3.org/2000/svg" fill="none" viewBox="0 0 24 24" stroke="currentColor">
  <path stroke-linecap="round" stroke-linejoin="round" stroke-width="2" d="M11 19a8 8 0 100-16 8 8 0 000 16zM21 21l-4.35-4.35M8 11h6"/>
</svg>
