<svg width="24" height="24" viewBox="0 0 24 24" fill="none" xmlns="http://www.w3.org/2000/svg">
    <path d="M12 8C5.7 8 3 13.7463 3 19H21C21 13.7463 18.3 8 12 8Z" stroke-width="2" stroke-linejoin="round" stroke="#25282B"/>
    <path d="M1 19L23 19" stroke-width="2" stroke-linecap="round" stroke-linejoin="round" stroke="#25282B"/>
    <path d="M11 5L12.8182 5" stroke-width="2" stroke-linecap="round" stroke="#25282B"/>
</svg>
