<svg width="24" height="24" fill="none" xmlns="http://www.w3.org/2000/svg">
    <path d="M13.9384 8.1979C13.3345 8.06868 12.6888 8 12 8C5.7 8 3 13.7463 3 19H21C21 16.6571 20.4631 14.2163 19.3093 12.2308" stroke="#25282B" stroke-width="2" stroke-linecap="round" stroke-linejoin="round"/>
    <path d="M1 19L23 19" stroke="#25282B" stroke-width="2" stroke-linecap="round" stroke-linejoin="round"/>
    <path d="M11 5L12.8182 5" stroke="#25282B" stroke-width="2" stroke-linecap="round"/>
    <path d="M22 5.00001C18.0948 8.90916 15.9052 11.1009 12 15.01L9 12.01" stroke="#25282B" stroke-width="2" stroke-linecap="round" stroke-linejoin="round"/>
</svg>
