<svg width="24" height="24" viewBox="0 0 24 24" fill="none" xmlns="http://www.w3.org/2000/svg">
<path d="M5 12.55C6.97656 10.9036 9.46761 10.0021 12.04 10.0021C14.6124 10.0021 17.1034 10.9036 19.08 12.55" stroke="#25282B" stroke-width="2" stroke-linecap="round" stroke-linejoin="round"/>
<path d="M1.41992 9.00004C4.34234 6.424 8.10422 5.00269 11.9999 5.00269C15.8956 5.00269 19.6575 6.424 22.5799 9.00004" stroke="#25282B" stroke-width="2" stroke-linecap="round" stroke-linejoin="round"/>
<path d="M8.53003 16.11C9.54523 15.3887 10.7597 15.0012 12.005 15.0012C13.2504 15.0012 14.4648 15.3887 15.48 16.11" stroke="#25282B" stroke-width="2" stroke-linecap="round" stroke-linejoin="round"/>
<path d="M12 20H12.01" stroke="#25282B" stroke-width="2" stroke-linecap="round" stroke-linejoin="round"/>
</svg>
